%YAML 1.1
%TAG !u! tag:unity3d.com,2011:
--- !u!114 &11400000
MonoBehaviour:
  m_ObjectHideFlags: 0
  m_CorrespondingSourceObject: {fileID: 0}
  m_PrefabInstance: {fileID: 0}
  m_PrefabAsset: {fileID: 0}
  m_GameObject: {fileID: 0}
  m_Enabled: 1
  m_EditorHideFlags: 0
  m_Script: {fileID: 1878438611, guid: 7de3b8b9e1263ad479e2d0c4261b7646, type: 3}
  m_Name: PhotonAppSettings
  m_EditorClassIdentifier: 
  AppSettings:
    AppIdFusion: c00bfa02-1517-4741-b94a-f5af6802d580
    AppIdChat: 
    AppIdVoice: 
    AppVersion: 0.2
    UseNameServer: 1
    FixedRegion: 
    Server: 
    Port: 0
    ProxyServer: 
    Protocol: 0
    EnableProtocolFallback: 1
    AuthMode: 0
    EnableLobbyStatistics: 0
    NetworkLogging: 1
